DEM 5093/7093 - Mapping Using the American Community Survey - Change Mapping
…
library(sf)

## Linking to GEOS 3.8.0, GDAL 3.0.4, PROJ 6.3.1

library(tmap)

v10_Profile <- load_variables(2010, "acs5/profile", cache = TRUE) #demographic profile tables
v19_Profile <- load_variables(2019, "acs5/profile", cache = TRUE) #demographic 

#Search for variables by using grep()

v10_Profile[grep(x = v10_Profile$label, "BELOW THE POVERTY LEVEL", ignore.case = TRUE), c("name", "label")]

## # A tibble: 38 x 2
##    name       label                                                             
##    <chr>      <chr>                                                             
##  1 DP03_0119  Estimate!!PERCENTAGE OF FAMILIES AND PEOPLE WHOSE INCOME IN THE P~
##  2 DP03_0119P Percent!!PERCENTAGE OF FAMILIES AND PEOPLE WHOSE INCOME IN THE PA~
##  3 DP03_0120  Estimate!!PERCENTAGE OF FAMILIES AND PEOPLE WHOSE INCOME IN THE P~
##  4 DP03_0120P Percent!!PERCENTAGE OF FAMILIES AND PEOPLE WHOSE INCOME IN THE PA~
##  5 DP03_0121  Estimate!!PERCENTAGE OF FAMILIES AND PEOPLE WHOSE INCOME IN THE P~
##  6 DP03_0121P Percent!!PERCENTAGE OF FAMILIES AND PEOPLE WHOSE INCOME IN THE PA~
##  7 DP03_0122  Estimate!!PERCENTAGE OF FAMILIES AND PEOPLE WHOSE INCOME IN THE P~
##  8 DP03_0122P Percent!!PERCENTAGE OF FAMILIES AND PEOPLE WHOSE INCOME IN THE PA~
##  9 DP03_0123  Estimate!!PERCENTAGE OF FAMILIES AND PEOPLE WHOSE INCOME IN THE P~
## 10 DP03_0123P Percent!!PERCENTAGE OF FAMILIES AND PEOPLE WHOSE INCOME IN THE PA~
## # ... with 28 more rows

v19_Profile[grep(x = v19_Profile$label, "BELOW THE POVERTY LEVEL", ignore.case = TRUE), c("name", "label")]

## # A tibble: 38 x 2
##    name       label                                                             
##    <chr>      <chr>                                                             
##  1 DP03_0119  Estimate!!PERCENTAGE OF FAMILIES AND PEOPLE WHOSE INCOME IN THE P~
##  2 DP03_0119P Percent!!PERCENTAGE OF FAMILIES AND PEOPLE WHOSE INCOME IN THE PA~
##  3 DP03_0120  Estimate!!PERCENTAGE OF FAMILIES AND PEOPLE WHOSE INCOME IN THE P~
##  4 DP03_0120P Percent!!PERCENTAGE OF FAMILIES AND PEOPLE WHOSE INCOME IN THE PA~
##  5 DP03_0121  Estimate!!PERCENTAGE OF FAMILIES AND PEOPLE WHOSE INCOME IN THE P~
##  6 DP03_0121P Percent!!PERCENTAGE OF FAMILIES AND PEOPLE WHOSE INCOME IN THE PA~
##  7 DP03_0122  Estimate!!PERCENTAGE OF FAMILIES AND PEOPLE WHOSE INCOME IN THE P~
##  8 DP03_0122P Percent!!PERCENTAGE OF FAMILIES AND PEOPLE WHOSE INCOME IN THE PA~
##  9 DP03_0123  Estimate!!PERCENTAGE OF FAMILIES AND PEOPLE WHOSE INCOME IN THE P~
## 10 DP03_0123P Percent!!PERCENTAGE OF FAMILIES AND PEOPLE WHOSE INCOME IN THE PA~
## # ... with 28 more rows
…
