DEM 5093/7093 Lab 1 using R - Basic Map making
…
v15_Profile <- load_variables(year = 2019 ,
                              dataset =  "acs5/profile",
                              cache = TRUE)

Calling View(v15_Profile) will let you interactively
browse and filter the ACS variables, this is one way to search for what
youre looking for.

Search for variables by keywords in the label

v15_Profile%>%
  filter(grepl(pattern = "POVERTY", x = label))%>%
  select(name, label)

## # A tibble: 38 x 2
##    name       label                                                             
##    <chr>      <chr>                                                             
##  1 DP03_0119  Estimate!!PERCENTAGE OF FAMILIES AND PEOPLE WHOSE INCOME IN THE P~
##  2 DP03_0119P Percent!!PERCENTAGE OF FAMILIES AND PEOPLE WHOSE INCOME IN THE PA~
##  3 DP03_0120  Estimate!!PERCENTAGE OF FAMILIES AND PEOPLE WHOSE INCOME IN THE P~
##  4 DP03_0120P Percent!!PERCENTAGE OF FAMILIES AND PEOPLE WHOSE INCOME IN THE PA~
##  5 DP03_0121  Estimate!!PERCENTAGE OF FAMILIES AND PEOPLE WHOSE INCOME IN THE P~
##  6 DP03_0121P Percent!!PERCENTAGE OF FAMILIES AND PEOPLE WHOSE INCOME IN THE PA~
##  7 DP03_0122  Estimate!!PERCENTAGE OF FAMILIES AND PEOPLE WHOSE INCOME IN THE P~
##  8 DP03_0122P Percent!!PERCENTAGE OF FAMILIES AND PEOPLE WHOSE INCOME IN THE PA~
##  9 DP03_0123  Estimate!!PERCENTAGE OF FAMILIES AND PEOPLE WHOSE INCOME IN THE P~
## 10 DP03_0123P Percent!!PERCENTAGE OF FAMILIES AND PEOPLE WHOSE INCOME IN THE PA~
## # ... with 28 more rows
…
